-------------------------------------------------------------------------------
Test set: com.darungan.csr.SistemPendukungKeputusanApplicationTests
-------------------------------------------------------------------------------
Tests run: 1, Failures: 0, Errors: 0, Skipped: 0, Time elapsed: 12.886 s - in com.darungan.csr.SistemPendukungKeputusanApplicationTests
